xof 0302txt 0064
template Header {
 <3D82AB43-62DA-11cf-AB39-0020AF71E433>
 WORD major;
 WORD minor;
 DWORD flags;
}

template Vector {
 <3D82AB5E-62DA-11cf-AB39-0020AF71E433>
 FLOAT x;
 FLOAT y;
 FLOAT z;
}

template Coords2d {
 <F6F23F44-7686-11cf-8F52-0040333594A3>
 FLOAT u;
 FLOAT v;
}

template Matrix4x4 {
 <F6F23F45-7686-11cf-8F52-0040333594A3>
 array FLOAT matrix[16];
}

template ColorRGBA {
 <35FF44E0-6C7C-11cf-8F52-0040333594A3>
 FLOAT red;
 FLOAT green;
 FLOAT blue;
 FLOAT alpha;
}

template ColorRGB {
 <D3E16E81-7835-11cf-8F52-0040333594A3>
 FLOAT red;
 FLOAT green;
 FLOAT blue;
}

template IndexedColor {
 <1630B820-7842-11cf-8F52-0040333594A3>
 DWORD index;
 ColorRGBA indexColor;
}

template Boolean {
 <4885AE61-78E8-11cf-8F52-0040333594A3>
 WORD truefalse;
}

template Boolean2d {
 <4885AE63-78E8-11cf-8F52-0040333594A3>
 Boolean u;
 Boolean v;
}

template MaterialWrap {
 <4885AE60-78E8-11cf-8F52-0040333594A3>
 Boolean u;
 Boolean v;
}

template TextureFilename {
 <A42790E1-7810-11cf-8F52-0040333594A3>
 STRING filename;
}

template Material {
 <3D82AB4D-62DA-11cf-AB39-0020AF71E433>
 ColorRGBA faceColor;
 FLOAT power;
 ColorRGB specularColor;
 ColorRGB emissiveColor;
 [...]
}

template MeshFace {
 <3D82AB5F-62DA-11cf-AB39-0020AF71E433>
 DWORD nFaceVertexIndices;
 array DWORD faceVertexIndices[nFaceVertexIndices];
}

template MeshFaceWraps {
 <4885AE62-78E8-11cf-8F52-0040333594A3>
 DWORD nFaceWrapValues;
 Boolean2d faceWrapValues;
}

template MeshTextureCoords {
 <F6F23F40-7686-11cf-8F52-0040333594A3>
 DWORD nTextureCoords;
 array Coords2d textureCoords[nTextureCoords];
}

template MeshMaterialList {
 <F6F23F42-7686-11cf-8F52-0040333594A3>
 DWORD nMaterials;
 DWORD nFaceIndexes;
 array DWORD faceIndexes[nFaceIndexes];
 [Material]
}

template MeshNormals {
 <F6F23F43-7686-11cf-8F52-0040333594A3>
 DWORD nNormals;
 array Vector normals[nNormals];
 DWORD nFaceNormals;
 array MeshFace faceNormals[nFaceNormals];
}

template MeshVertexColors {
 <1630B821-7842-11cf-8F52-0040333594A3>
 DWORD nVertexColors;
 array IndexedColor vertexColors[nVertexColors];
}

template Mesh {
 <3D82AB44-62DA-11cf-AB39-0020AF71E433>
 DWORD nVertices;
 array Vector vertices[nVertices];
 DWORD nFaces;
 array MeshFace faces[nFaces];
 [...]
}

Header{
1;
0;
1;
}

Mesh {
 170;
 0.25967;3.68648;-0.19558;,
 0.25967;3.68648;0.26642;,
 0.25967;3.16508;0.26642;,
 0.25967;3.16508;-0.19558;,
 0.25967;3.68648;0.26642;,
 -0.20233;3.68648;0.26642;,
 -0.20233;3.16508;0.26642;,
 0.25967;3.16508;0.26642;,
 -0.20233;3.68648;0.26642;,
 -0.20233;3.68648;-0.19558;,
 -0.20233;3.16508;-0.19558;,
 -0.20233;3.16508;0.26642;,
 -0.20233;3.68648;-0.19558;,
 0.25967;3.68648;-0.19558;,
 0.25967;3.16508;-0.19558;,
 -0.20233;3.16508;-0.19558;,
 0.25967;3.68648;0.26642;,
 0.25967;3.68648;-0.19558;,
 0.38664;3.15082;-0.18910;,
 0.38717;3.18870;0.26642;,
 0.37699;1.97290;0.24205;,
 0.36528;1.94727;-0.17215;,
 0.38717;3.18870;0.26642;,
 -0.32983;3.18870;0.26642;,
 -0.32080;1.97520;0.25353;,
 0.37699;1.97290;0.24205;,
 -0.32983;3.18870;0.26642;,
 -0.33036;3.15082;-0.18910;,
 -0.32312;1.94071;-0.17724;,
 -0.32080;1.97520;0.25353;,
 -0.33036;3.15082;-0.18910;,
 0.38664;3.15082;-0.18910;,
 0.36528;1.94727;-0.17215;,
 -0.32312;1.94071;-0.17724;,
 0.38717;3.18870;0.26642;,
 0.38664;3.15082;-0.18910;,
 0.38380;3.12526;-0.14909;,
 0.31101;3.20818;0.15022;,
 0.94213;2.63644;0.47012;,
 1.00704;2.57815;0.16444;,
 0.31101;3.20818;0.15022;,
 0.07418;2.96031;0.16130;,
 0.71582;2.49021;0.42481;,
 0.94213;2.63644;0.47012;,
 0.07418;2.96031;0.16130;,
 0.14697;2.87739;-0.13801;,
 0.78073;2.43192;0.11913;,
 0.71582;2.49021;0.42481;,
 0.14697;2.87739;-0.13801;,
 0.38380;3.12526;-0.14909;,
 1.00704;2.57815;0.16444;,
 0.78073;2.43192;0.11913;,
 1.00704;2.57815;0.16444;,
 0.94213;2.63644;0.47012;,
 1.18302;1.76820;0.60550;,
 1.24005;1.73455;0.29345;,
 0.94213;2.63644;0.47012;,
 0.71582;2.49021;0.42481;,
 0.91355;1.69359;0.53076;,
 1.18302;1.76820;0.60550;,
 0.71582;2.49021;0.42481;,
 0.78073;2.43192;0.11913;,
 0.97058;1.65994;0.21871;,
 0.91355;1.69359;0.53076;,
 0.78073;2.43192;0.11913;,
 1.00704;2.57815;0.16444;,
 1.24005;1.73455;0.29345;,
 0.97058;1.65994;0.21871;,
 1.24005;1.73455;0.29345;,
 1.18302;1.76820;0.60550;,
 -0.34354;3.18426;0.00003;,
 -0.74098;2.54958;-0.06868;,
 -0.67354;2.32870;0.15580;,
 -0.21404;3.07185;0.26902;,
 -0.21404;3.07185;0.26902;,
 -0.67354;2.32870;0.15580;,
 -0.44750;2.29459;0.03667;,
 0.02250;2.90470;0.08529;,
 0.02250;2.90470;0.08529;,
 -0.44750;2.29459;0.03667;,
 -0.51494;2.51547;-0.18780;,
 -0.10700;3.01711;-0.18370;,
 -0.10700;3.01711;-0.18370;,
 -0.51494;2.51547;-0.18780;,
 -0.74098;2.54958;-0.06868;,
 -0.34354;3.18426;0.00003;,
 -0.74098;2.54958;-0.06868;,
 -0.83634;2.39742;-0.86828;,
 -0.85931;2.16507;-0.75269;,
 -0.67354;2.32870;0.15580;,
 -0.67354;2.32870;0.15580;,
 -0.85931;2.16507;-0.75269;,
 -0.57595;2.15915;-0.79163;,
 -0.44750;2.29459;0.03667;,
 -0.44750;2.29459;0.03667;,
 -0.57595;2.15915;-0.79163;,
 -0.55299;2.39149;-0.90722;,
 -0.51494;2.51547;-0.18780;,
 -0.51494;2.51547;-0.18780;,
 -0.55299;2.39149;-0.90722;,
 -0.83634;2.39742;-0.86828;,
 -0.74098;2.54958;-0.06868;,
 -0.83634;2.39742;-0.86828;,
 -0.85931;2.16507;-0.75269;,
 0.01833;1.67638;-0.11395;,
 -0.32312;1.94071;-0.17724;,
 0.36528;1.94727;-0.17215;,
 0.02741;1.65393;0.19776;,
 0.37699;1.97290;0.24205;,
 -0.32080;1.97520;0.25353;,
 0.01833;1.67638;-0.11395;,
 0.53454;0.95892;-0.34994;,
 0.22511;0.95581;-0.42273;,
 0.36528;1.94727;-0.17215;,
 0.37699;1.97290;0.24205;,
 0.46803;0.88940;-0.03281;,
 0.53454;0.95892;-0.34994;,
 0.02741;1.65393;0.19776;,
 0.15860;0.88629;-0.10559;,
 0.46803;0.88940;-0.03281;,
 0.02741;1.65393;0.19776;,
 0.01833;1.67638;-0.11395;,
 0.22511;0.95581;-0.42273;,
 0.15860;0.88629;-0.10559;,
 0.22511;0.95581;-0.42273;,
 0.53454;0.95892;-0.34994;,
 0.57205;-0.04214;-0.42208;,
 0.26374;-0.05548;-0.48422;,
 0.53454;0.95892;-0.34994;,
 0.46803;0.88940;-0.03281;,
 0.46506;-0.01535;0.02030;,
 0.57205;-0.04214;-0.42208;,
 0.46803;0.88940;-0.03281;,
 0.15860;0.88629;-0.10559;,
 0.15675;-0.02869;-0.04184;,
 0.46506;-0.01535;0.02030;,
 0.15860;0.88629;-0.10559;,
 0.22511;0.95581;-0.42273;,
 0.26374;-0.05548;-0.48422;,
 0.15675;-0.02869;-0.04184;,
 0.26374;-0.05548;-0.48422;,
 0.57205;-0.04214;-0.42208;,
 -0.18477;0.98046;-0.27746;,
 -0.46987;1.00850;-0.13968;,
 -0.32312;1.94071;-0.17724;,
 -0.46987;1.00850;-0.13968;,
 -0.40686;0.93554;0.17619;,
 -0.32080;1.97520;0.25353;,
 -0.40686;0.93554;0.17619;,
 -0.12176;0.90751;0.03841;,
 -0.12176;0.90751;0.03841;,
 -0.18477;0.98046;-0.27746;,
 -0.18477;0.98046;-0.27746;,
 -0.21872;-0.00686;-0.14502;,
 -0.53432;0.00864;0.01027;,
 -0.46987;1.00850;-0.13968;,
 -0.46987;1.00850;-0.13968;,
 -0.53432;0.00864;0.01027;,
 -0.44953;-0.00372;0.44683;,
 -0.40686;0.93554;0.17619;,
 -0.40686;0.93554;0.17619;,
 -0.44953;-0.00372;0.44683;,
 -0.13394;-0.01922;0.29154;,
 -0.12176;0.90751;0.03841;,
 -0.12176;0.90751;0.03841;,
 -0.13394;-0.01922;0.29154;,
 -0.21872;-0.00686;-0.14502;,
 -0.18477;0.98046;-0.27746;,
 -0.21872;-0.00686;-0.14502;,
 -0.53432;0.00864;0.01027;;
 
 48;
 4;0,1,2,3;,
 4;4,5,6,7;,
 4;8,9,10,11;,
 4;12,13,14,15;,
 4;12,5,16,17;,
 4;18,19,20,21;,
 4;22,23,24,25;,
 4;26,27,28,29;,
 4;30,31,32,33;,
 4;30,23,34,35;,
 4;36,37,38,39;,
 4;40,41,42,43;,
 4;44,45,46,47;,
 4;48,49,50,51;,
 4;52,53,54,55;,
 4;56,57,58,59;,
 4;60,61,62,63;,
 4;64,65,66,67;,
 4;68,69,58,67;,
 4;70,71,72,73;,
 4;74,75,76,77;,
 4;78,79,80,81;,
 4;82,83,84,85;,
 4;86,87,88,89;,
 4;90,91,92,93;,
 4;94,95,96,97;,
 4;98,99,100,101;,
 4;102,99,92,103;,
 3;104,105,106;,
 3;107,108,109;,
 4;110,106,111,112;,
 4;113,114,115,116;,
 4;108,117,118,119;,
 4;120,121,122,123;,
 4;124,125,126,127;,
 4;128,129,130,131;,
 4;132,133,134,135;,
 4;136,137,138,139;,
 4;140,141,130,139;,
 4;110,142,143,144;,
 4;105,145,146,109;,
 4;147,148,149,117;,
 4;120,150,151,121;,
 4;152,153,154,155;,
 4;156,157,158,159;,
 4;160,161,162,163;,
 4;164,165,166,167;,
 4;168,165,158,169;;
 
 MeshMaterialList {
  2;
  48;
  0,
  0,
  0,
  0,
  0,
  0,
  0,
  0,
  0,
  0,
  0,
  0,
  0,
  0,
  0,
  0,
  0,
  0,
  0,
  1,
  1,
  1,
  1,
  1,
  1,
  1,
  1,
  1,
  0,
  0,
  0,
  0,
  0,
  0,
  0,
  0,
  0,
  0,
  0,
  0,
  0,
  0,
  0,
  0,
  0,
  0,
  0,
  0;;
  Material {
   0.536471;0.536471;0.536471;1.000000;;
   5.000000;
   0.000000;0.000000;0.000000;;
   0.000000;0.000000;0.000000;;
  }
  Material {
   0.800000;0.326275;0.250980;1.000000;;
   5.000000;
   0.000000;0.000000;0.000000;;
   0.000000;0.000000;0.000000;;
  }
 }
 MeshNormals {
  62;
  1.000000;0.000000;-0.000000;,
  0.000000;0.000000;1.000000;,
  -1.000000;0.000000;0.000000;,
  0.999817;-0.013242;-0.013802;,
  0.997933;0.048086;0.042639;,
  0.008195;-0.015401;0.999848;,
  0.090692;-0.116692;0.989019;,
  -0.999970;-0.006692;0.003820;,
  -0.997221;0.052289;0.053061;,
  0.671169;0.741024;-0.020408;,
  0.842943;0.534098;0.064702;,
  -0.258766;0.214317;0.941864;,
  -0.262118;0.142470;0.954461;,
  -0.596117;-0.801236;0.051623;,
  -0.825253;-0.562312;-0.052563;,
  0.947645;0.284676;0.144664;,
  -0.264072;0.069864;0.961969;,
  -0.954993;-0.255662;-0.150417;,
  -0.737746;0.386429;0.553538;,
  -0.902984;0.218638;0.369887;,
  0.390940;-0.369422;0.843026;,
  0.649471;-0.487152;-0.583842;,
  0.890600;-0.261330;-0.372208;,
  -0.987690;0.031348;0.153248;,
  -0.024061;-0.984439;0.174072;,
  0.994641;0.004718;-0.103282;,
  -0.052679;0.070560;-0.996116;,
  0.068800;-0.219119;0.973269;,
  0.091594;0.185153;-0.978432;,
  0.984968;0.062755;0.160936;,
  -0.138979;-0.130459;0.981665;,
  0.210959;0.072711;-0.974787;,
  0.974888;0.016050;0.222117;,
  -0.214568;0.063149;0.974665;,
  -0.293601;0.015545;-0.955802;,
  -0.982663;0.104324;0.153266;,
  0.352393;0.027493;0.935448;,
  -0.442125;-0.104674;-0.890825;,
  -0.974086;0.097406;0.204127;,
  0.440193;0.230665;0.867769;,
  -0.000000;0.000000;-1.000000;,
  0.000000;1.000000;0.000000;,
  -0.011240;-0.164144;0.986372;,
  0.003739;-0.011918;-0.999922;,
  -0.005861;0.020220;-0.999778;,
  -0.040549;-0.033168;-0.998627;,
  -0.000000;0.996559;-0.082883;,
  0.259738;-0.215456;-0.941337;,
  0.262141;-0.141776;-0.954559;,
  0.263073;-0.067300;-0.962426;,
  0.226389;-0.963145;0.145261;,
  -0.405287;0.341970;-0.847820;,
  0.022009;0.983243;-0.180965;,
  -0.131678;-0.431066;-0.892661;,
  -0.978207;-0.174847;-0.111981;,
  -0.980960;-0.097592;-0.167909;,
  -0.974783;-0.019449;-0.222308;,
  0.029534;-0.997280;0.067531;,
  0.968588;-0.204514;-0.141462;,
  0.975981;-0.134381;-0.171474;,
  0.977641;-0.063458;-0.200480;,
  -0.057446;-0.998202;-0.017115;;
  48;
  4;0,0,0,0;,
  4;1,1,1,1;,
  4;2,2,2,2;,
  4;40,40,40,40;,
  4;41,41,41,41;,
  4;3,3,4,4;,
  4;5,5,6,42;,
  4;7,7,8,8;,
  4;43,43,44,45;,
  4;46,46,46,46;,
  4;9,9,10,10;,
  4;11,11,12,12;,
  4;13,13,14,14;,
  4;47,47,48,48;,
  4;10,10,15,15;,
  4;12,12,16,16;,
  4;14,14,17,17;,
  4;48,48,49,49;,
  4;50,50,50,50;,
  4;18,19,19,18;,
  4;20,20,20,20;,
  4;21,22,22,21;,
  4;51,51,51,51;,
  4;19,23,23,19;,
  4;24,24,24,24;,
  4;22,25,25,22;,
  4;52,52,52,52;,
  4;53,53,53,53;,
  3;26,45,44;,
  3;27,42,6;,
  4;26,44,28,28;,
  4;4,4,29,29;,
  4;42,27,30,30;,
  4;54,54,55,55;,
  4;28,28,31,31;,
  4;29,29,32,32;,
  4;30,30,33,33;,
  4;55,55,56,56;,
  4;57,57,57,57;,
  4;26,34,34,45;,
  4;8,35,35,8;,
  4;6,36,36,27;,
  4;58,59,59,58;,
  4;34,37,37,34;,
  4;35,38,38,35;,
  4;36,39,39,36;,
  4;59,60,60,59;,
  4;61,61,61,61;;
 }
 MeshTextureCoords {
  170;
  0.000000;0.000000;,
  1.000000;0.000000;,
  1.000000;1.000000;,
  0.000000;1.000000;,
  0.000000;0.000000;,
  1.000000;0.000000;,
  1.000000;1.000000;,
  0.000000;1.000000;,
  0.000000;0.000000;,
  1.000000;0.000000;,
  1.000000;1.000000;,
  0.000000;1.000000;,
  0.000000;0.000000;,
  1.000000;0.000000;,
  1.000000;1.000000;,
  0.000000;1.000000;,
  1.000000;1.000000;,
  0.000000;1.000000;,
  0.000000;0.000000;,
  1.000000;0.000000;,
  1.000000;1.000000;,
  0.000000;1.000000;,
  0.000000;0.000000;,
  1.000000;0.000000;,
  1.000000;1.000000;,
  0.000000;1.000000;,
  0.000000;0.000000;,
  1.000000;0.000000;,
  1.000000;1.000000;,
  0.000000;1.000000;,
  0.000000;0.000000;,
  1.000000;0.000000;,
  1.000000;1.000000;,
  0.000000;1.000000;,
  1.000000;1.000000;,
  0.000000;1.000000;,
  0.000000;0.000000;,
  1.000000;0.000000;,
  1.000000;1.000000;,
  0.000000;1.000000;,
  0.000000;0.000000;,
  1.000000;0.000000;,
  1.000000;1.000000;,
  0.000000;1.000000;,
  0.000000;0.000000;,
  1.000000;0.000000;,
  1.000000;1.000000;,
  0.000000;1.000000;,
  0.000000;0.000000;,
  1.000000;0.000000;,
  1.000000;1.000000;,
  0.000000;1.000000;,
  0.000000;0.000000;,
  1.000000;0.000000;,
  1.000000;1.000000;,
  0.000000;1.000000;,
  0.000000;0.000000;,
  1.000000;0.000000;,
  1.000000;1.000000;,
  0.000000;1.000000;,
  0.000000;0.000000;,
  1.000000;0.000000;,
  1.000000;1.000000;,
  0.000000;1.000000;,
  0.000000;0.000000;,
  1.000000;0.000000;,
  1.000000;1.000000;,
  0.000000;1.000000;,
  0.000000;0.000000;,
  1.000000;0.000000;,
  0.000000;0.000000;,
  0.000000;1.000000;,
  1.000000;1.000000;,
  1.000000;0.000000;,
  0.000000;0.000000;,
  0.000000;1.000000;,
  1.000000;1.000000;,
  1.000000;0.000000;,
  0.000000;0.000000;,
  0.000000;1.000000;,
  1.000000;1.000000;,
  1.000000;0.000000;,
  0.000000;0.000000;,
  0.000000;1.000000;,
  1.000000;1.000000;,
  1.000000;0.000000;,
  0.000000;0.000000;,
  0.000000;1.000000;,
  1.000000;1.000000;,
  1.000000;0.000000;,
  0.000000;0.000000;,
  0.000000;1.000000;,
  1.000000;1.000000;,
  1.000000;0.000000;,
  0.000000;0.000000;,
  0.000000;1.000000;,
  1.000000;1.000000;,
  1.000000;0.000000;,
  0.000000;0.000000;,
  0.000000;1.000000;,
  1.000000;1.000000;,
  1.000000;0.000000;,
  0.000000;0.000000;,
  1.000000;0.000000;,
  0.500000;1.000000;,
  0.000000;0.000000;,
  1.000000;0.000000;,
  0.500000;1.000000;,
  0.000000;0.000000;,
  1.000000;0.000000;,
  0.000000;0.000000;,
  1.000000;1.000000;,
  0.000000;1.000000;,
  0.000000;0.000000;,
  1.000000;0.000000;,
  1.000000;1.000000;,
  0.000000;1.000000;,
  1.000000;0.000000;,
  1.000000;1.000000;,
  0.000000;1.000000;,
  0.000000;0.000000;,
  1.000000;0.000000;,
  1.000000;1.000000;,
  0.000000;1.000000;,
  0.000000;0.000000;,
  1.000000;0.000000;,
  1.000000;1.000000;,
  0.000000;1.000000;,
  0.000000;0.000000;,
  1.000000;0.000000;,
  1.000000;1.000000;,
  0.000000;1.000000;,
  0.000000;0.000000;,
  1.000000;0.000000;,
  1.000000;1.000000;,
  0.000000;1.000000;,
  0.000000;0.000000;,
  1.000000;0.000000;,
  1.000000;1.000000;,
  0.000000;1.000000;,
  0.000000;0.000000;,
  1.000000;0.000000;,
  0.000000;1.000000;,
  1.000000;1.000000;,
  1.000000;0.000000;,
  0.000000;1.000000;,
  1.000000;1.000000;,
  0.000000;0.000000;,
  0.000000;1.000000;,
  1.000000;1.000000;,
  0.000000;1.000000;,
  1.000000;1.000000;,
  0.000000;0.000000;,
  0.000000;1.000000;,
  1.000000;1.000000;,
  1.000000;0.000000;,
  0.000000;0.000000;,
  0.000000;1.000000;,
  1.000000;1.000000;,
  1.000000;0.000000;,
  0.000000;0.000000;,
  0.000000;1.000000;,
  1.000000;1.000000;,
  1.000000;0.000000;,
  0.000000;0.000000;,
  0.000000;1.000000;,
  1.000000;1.000000;,
  1.000000;0.000000;,
  0.000000;0.000000;,
  1.000000;0.000000;;
 }
}
