xof 0302txt 0064
template Header {
 <3D82AB43-62DA-11cf-AB39-0020AF71E433>
 WORD major;
 WORD minor;
 DWORD flags;
}

template Vector {
 <3D82AB5E-62DA-11cf-AB39-0020AF71E433>
 FLOAT x;
 FLOAT y;
 FLOAT z;
}

template Coords2d {
 <F6F23F44-7686-11cf-8F52-0040333594A3>
 FLOAT u;
 FLOAT v;
}

template Matrix4x4 {
 <F6F23F45-7686-11cf-8F52-0040333594A3>
 array FLOAT matrix[16];
}

template ColorRGBA {
 <35FF44E0-6C7C-11cf-8F52-0040333594A3>
 FLOAT red;
 FLOAT green;
 FLOAT blue;
 FLOAT alpha;
}

template ColorRGB {
 <D3E16E81-7835-11cf-8F52-0040333594A3>
 FLOAT red;
 FLOAT green;
 FLOAT blue;
}

template IndexedColor {
 <1630B820-7842-11cf-8F52-0040333594A3>
 DWORD index;
 ColorRGBA indexColor;
}

template Boolean {
 <4885AE61-78E8-11cf-8F52-0040333594A3>
 WORD truefalse;
}

template Boolean2d {
 <4885AE63-78E8-11cf-8F52-0040333594A3>
 Boolean u;
 Boolean v;
}

template MaterialWrap {
 <4885AE60-78E8-11cf-8F52-0040333594A3>
 Boolean u;
 Boolean v;
}

template TextureFilename {
 <A42790E1-7810-11cf-8F52-0040333594A3>
 STRING filename;
}

template Material {
 <3D82AB4D-62DA-11cf-AB39-0020AF71E433>
 ColorRGBA faceColor;
 FLOAT power;
 ColorRGB specularColor;
 ColorRGB emissiveColor;
 [...]
}

template MeshFace {
 <3D82AB5F-62DA-11cf-AB39-0020AF71E433>
 DWORD nFaceVertexIndices;
 array DWORD faceVertexIndices[nFaceVertexIndices];
}

template MeshFaceWraps {
 <4885AE62-78E8-11cf-8F52-0040333594A3>
 DWORD nFaceWrapValues;
 Boolean2d faceWrapValues;
}

template MeshTextureCoords {
 <F6F23F40-7686-11cf-8F52-0040333594A3>
 DWORD nTextureCoords;
 array Coords2d textureCoords[nTextureCoords];
}

template MeshMaterialList {
 <F6F23F42-7686-11cf-8F52-0040333594A3>
 DWORD nMaterials;
 DWORD nFaceIndexes;
 array DWORD faceIndexes[nFaceIndexes];
 [Material]
}

template MeshNormals {
 <F6F23F43-7686-11cf-8F52-0040333594A3>
 DWORD nNormals;
 array Vector normals[nNormals];
 DWORD nFaceNormals;
 array MeshFace faceNormals[nFaceNormals];
}

template MeshVertexColors {
 <1630B821-7842-11cf-8F52-0040333594A3>
 DWORD nVertexColors;
 array IndexedColor vertexColors[nVertexColors];
}

template Mesh {
 <3D82AB44-62DA-11cf-AB39-0020AF71E433>
 DWORD nVertices;
 array Vector vertices[nVertices];
 DWORD nFaces;
 array MeshFace faces[nFaces];
 [...]
}

Header{
1;
0;
1;
}

Mesh {
 220;
 -0.13658;1.63454;0.29573;,
 0.13658;1.63454;0.29573;,
 0.13658;1.78531;0.15138;,
 -0.13658;1.78531;0.15138;,
 0.13658;1.78531;-0.15138;,
 -0.13658;1.78531;-0.15138;,
 0.13658;1.63454;-0.29573;,
 -0.13658;1.63454;-0.29573;,
 -0.13658;-1.39098;0.15138;,
 0.13658;-1.39098;0.15138;,
 0.13658;-1.24020;0.29573;,
 -0.13658;-1.24020;0.29573;,
 -0.13658;-1.39098;-0.15138;,
 0.13658;-1.39098;-0.15138;,
 -0.13658;-1.24020;-0.29573;,
 0.13658;-1.24020;-0.29573;,
 0.13658;0.57315;-0.21588;,
 0.13658;-1.24020;-0.29573;,
 -0.13658;-1.24020;-0.29573;,
 -0.13658;0.57315;-0.21588;,
 0.13658;0.57315;0.21588;,
 0.13658;-1.39098;0.15138;,
 0.13658;-1.39098;-0.15138;,
 0.13658;0.57315;-0.21588;,
 -0.13658;0.57315;0.21588;,
 -0.13658;-1.24020;0.29573;,
 0.13658;-1.24020;0.29573;,
 0.13658;0.57315;0.21588;,
 -0.13658;0.57315;-0.21588;,
 -0.13658;-1.39098;-0.15138;,
 -0.13658;-1.39098;0.15138;,
 -0.13658;0.57315;0.21588;,
 -0.13658;1.24341;-0.21588;,
 -0.13658;1.63454;-0.29573;,
 0.13658;1.63454;-0.29573;,
 0.13658;1.24341;-0.21588;,
 0.13658;1.24341;-0.21588;,
 0.13658;1.78531;-0.15138;,
 0.13658;1.78531;0.15138;,
 0.13658;1.24341;0.21588;,
 0.13658;1.24341;0.21588;,
 0.13658;1.63454;0.29573;,
 -0.13658;1.63454;0.29573;,
 -0.13658;1.24341;0.21588;,
 -0.13658;1.24341;0.21588;,
 -0.13658;1.78531;0.15138;,
 -0.13658;1.78531;-0.15138;,
 -0.13658;1.24341;-0.21588;,
 0.13658;0.57315;-0.21588;,
 0.13658;-1.24020;-0.29573;,
 -0.13658;0.57315;-0.21588;,
 -0.13658;-1.24020;-0.29573;,
 -0.13658;0.57315;0.21588;,
 0.13658;0.57315;0.21588;,
 0.13658;1.24341;0.21588;,
 -0.13658;1.24341;0.21588;,
 -0.13658;1.24341;-0.21588;,
 -0.13658;1.63454;-0.29573;,
 0.13658;1.24341;-0.21588;,
 0.13658;1.63454;-0.29573;,
 -0.09925;2.09348;0.43159;,
 0.09925;2.09348;0.43159;,
 0.09925;2.18275;0.19895;,
 -0.09925;2.18275;0.19895;,
 -0.09925;2.18275;-0.19895;,
 0.09925;2.18275;-0.19895;,
 0.09925;2.09348;-0.43159;,
 -0.09925;2.09348;-0.43159;,
 -0.09925;1.21582;0.14750;,
 0.09925;1.21582;0.14750;,
 0.09925;1.34198;0.44916;,
 -0.09925;1.34198;0.44916;,
 -0.09925;1.21582;-0.14750;,
 0.09925;1.21582;-0.14750;,
 -0.09925;1.34198;-0.44916;,
 0.09925;1.34198;-0.44916;,
 0.09925;1.54956;-0.53750;,
 0.09925;1.34198;-0.44916;,
 -0.09925;1.34198;-0.44916;,
 -0.09925;1.54956;-0.53750;,
 -0.09925;2.09348;-0.43159;,
 0.09925;2.09348;-0.43159;,
 0.09925;1.88894;-0.20808;,
 0.09925;1.21582;-0.14750;,
 0.09925;1.34198;-0.44916;,
 0.09925;1.54956;-0.53750;,
 0.09925;2.09348;-0.43159;,
 0.09925;2.18275;-0.19895;,
 0.09925;1.54956;0.53750;,
 0.09925;1.21582;0.14750;,
 0.09925;1.88894;0.20808;,
 0.09925;2.18275;0.19895;,
 -0.09925;1.54956;0.53750;,
 -0.09925;1.34198;0.44916;,
 0.09925;1.34198;0.44916;,
 0.09925;1.54956;0.53750;,
 0.09925;2.09348;0.43159;,
 -0.09925;2.09348;0.43159;,
 -0.09925;1.88894;0.20808;,
 -0.09925;1.21582;0.14750;,
 -0.09925;1.54956;0.53750;,
 -0.09925;2.18275;0.19895;,
 -0.09925;1.54956;-0.53750;,
 -0.09925;1.34198;-0.44916;,
 -0.09925;1.21582;-0.14750;,
 -0.09925;1.88894;-0.20808;,
 -0.09925;2.18275;-0.19895;,
 -0.09925;2.09348;-0.43159;,
 0.09925;1.66245;-0.08813;,
 -0.09925;1.66245;-0.08813;,
 -0.09925;1.66245;0.08813;,
 0.09925;1.66245;0.08813;,
 0.00000;2.76317;-0.25111;,
 0.14764;2.76317;-0.17756;,
 0.17756;-1.40482;-0.21355;,
 0.00000;-1.40482;-0.30200;,
 0.20879;2.76317;0.00000;,
 0.25111;-1.40482;0.00000;,
 0.14764;2.76317;0.17756;,
 0.17756;-1.40482;0.21355;,
 -0.00000;2.76317;0.25111;,
 -0.00000;-1.40482;0.30200;,
 -0.14764;2.76317;0.17756;,
 -0.17756;-1.40482;0.21355;,
 -0.20879;2.76317;-0.00000;,
 -0.25111;-1.40482;-0.00000;,
 -0.14764;2.76317;-0.17756;,
 -0.17756;-1.40482;-0.21355;,
 0.00000;2.76317;-0.25111;,
 0.00000;-1.40482;-0.30200;,
 0.00000;4.52518;0.00000;,
 0.16231;4.52518;-0.19521;,
 0.00000;4.52518;-0.27607;,
 0.00000;4.52518;0.00000;,
 0.22955;4.52518;0.00000;,
 0.00000;4.52518;0.00000;,
 0.16231;4.52518;0.19521;,
 0.00000;4.52518;0.00000;,
 -0.00000;4.52518;0.27607;,
 0.00000;4.52518;0.00000;,
 -0.16231;4.52518;0.19521;,
 0.00000;4.52518;0.00000;,
 -0.22955;4.52518;-0.00000;,
 0.00000;4.52518;0.00000;,
 -0.16231;4.52518;-0.19521;,
 0.00000;4.52518;0.00000;,
 0.00000;4.52518;-0.27607;,
 0.00000;-1.40482;-0.00000;,
 0.00000;-1.40482;-0.00000;,
 0.00000;-1.40482;-0.00000;,
 0.00000;-1.40482;-0.00000;,
 0.00000;-1.40482;-0.00000;,
 0.00000;-1.40482;-0.00000;,
 0.00000;-1.40482;-0.00000;,
 0.00000;-1.40482;-0.00000;,
 0.15182;3.70712;-0.18259;,
 0.00000;3.70712;-0.25822;,
 0.21471;3.70712;0.00000;,
 0.15182;3.70712;0.18259;,
 -0.00000;3.70712;0.25822;,
 -0.15182;3.70712;0.18259;,
 -0.21471;3.70712;-0.00000;,
 -0.15182;3.70712;-0.18259;,
 0.00000;3.70712;-0.25822;,
 -0.18330;4.20484;1.75440;,
 0.18330;4.20484;1.75440;,
 0.26119;4.35195;0.58480;,
 -0.26119;4.35195;0.58480;,
 0.26119;4.35195;-0.58480;,
 -0.26119;4.35195;-0.58480;,
 0.18330;4.20484;-1.75440;,
 -0.18330;4.20484;-1.75440;,
 -0.26119;3.69676;0.58480;,
 0.26119;3.69676;0.58480;,
 0.18330;3.65167;1.75440;,
 -0.18330;3.65167;1.75440;,
 -0.26119;3.69676;-0.58480;,
 0.26119;3.69676;-0.58480;,
 -0.18330;3.65167;-1.75440;,
 0.18330;3.65167;-1.75440;,
 0.00000;3.52379;2.99783;,
 0.00000;3.66983;2.96808;,
 0.00000;3.52379;-2.99783;,
 0.00000;3.66983;-2.96808;,
 0.22045;3.93244;-1.75440;,
 0.18330;3.65167;-1.75440;,
 0.00000;3.52379;-2.99783;,
 0.00000;3.66983;-2.96808;,
 0.31413;3.92946;-0.58480;,
 0.26119;3.69676;-0.58480;,
 0.18330;4.20484;-1.75440;,
 0.26119;4.35195;-0.58480;,
 0.31413;3.92946;0.58480;,
 0.26119;3.69676;0.58480;,
 0.26119;4.35195;0.58480;,
 0.22045;3.93244;1.75440;,
 0.18330;3.65167;1.75440;,
 0.18330;4.20484;1.75440;,
 0.00000;3.66983;2.96808;,
 0.00000;3.52379;2.99783;,
 -0.22045;3.93244;1.75440;,
 -0.18330;3.65167;1.75440;,
 0.00000;3.52379;2.99783;,
 0.00000;3.66983;2.96808;,
 -0.31413;3.92946;0.58480;,
 -0.26119;3.69676;0.58480;,
 -0.18330;4.20484;1.75440;,
 -0.26119;4.35195;0.58480;,
 -0.31413;3.92946;-0.58480;,
 -0.26119;3.69676;-0.58480;,
 -0.26119;4.35195;-0.58480;,
 -0.22045;3.93244;-1.75440;,
 -0.18330;3.65167;-1.75440;,
 -0.18330;4.20484;-1.75440;,
 0.00000;3.66983;-2.96808;,
 0.00000;3.52379;-2.99783;,
 0.00000;3.66983;-2.96808;,
 0.00000;3.66983;-2.96808;,
 0.00000;3.66983;2.96808;,
 0.00000;3.66983;2.96808;;
 
 121;
 4;0,1,2,3;,
 4;3,2,4,5;,
 4;5,4,6,7;,
 4;8,9,10,11;,
 4;12,13,9,8;,
 4;14,15,13,12;,
 4;16,17,18,19;,
 4;20,21,22,23;,
 4;24,25,26,27;,
 4;28,29,30,31;,
 4;32,33,34,35;,
 4;32,35,16,19;,
 4;36,37,38,39;,
 4;36,39,20,23;,
 4;40,41,42,43;,
 4;40,43,24,27;,
 4;44,45,46,47;,
 4;44,47,28,31;,
 3;48,22,49;,
 3;50,51,29;,
 3;52,30,11;,
 3;53,10,21;,
 3;54,38,1;,
 3;55,0,45;,
 3;56,46,57;,
 3;58,59,37;,
 4;60,61,62,63;,
 4;64,65,66,67;,
 4;68,69,70,71;,
 4;72,73,69,68;,
 4;74,75,73,72;,
 4;76,77,78,79;,
 4;76,79,80,81;,
 4;82,83,84,85;,
 4;82,85,86,87;,
 4;88,70,89,90;,
 4;88,90,91,61;,
 4;92,93,94,95;,
 4;92,95,96,97;,
 4;98,99,71,100;,
 4;98,100,60,101;,
 4;102,103,104,105;,
 4;102,105,106,107;,
 4;82,87,106,105;,
 4;98,101,91,90;,
 4;108,82,105,109;,
 4;110,98,90,111;,
 3;98,110,99;,
 3;104,109,105;,
 3;82,108,83;,
 3;89,111,90;,
 4;112,113,114,115;,
 4;113,116,117,114;,
 4;116,118,119,117;,
 4;118,120,121,119;,
 4;120,122,123,121;,
 4;122,124,125,123;,
 4;124,126,127,125;,
 4;126,128,129,127;,
 3;130,131,132;,
 3;133,134,131;,
 3;135,136,134;,
 3;137,138,136;,
 3;139,140,138;,
 3;141,142,140;,
 3;143,144,142;,
 3;145,146,144;,
 3;147,115,114;,
 3;148,114,117;,
 3;149,117,119;,
 3;150,119,121;,
 3;151,121,123;,
 3;152,123,125;,
 3;153,125,127;,
 3;154,127,129;,
 4;155,113,112,156;,
 4;155,156,132,131;,
 4;157,116,113,155;,
 4;157,155,131,134;,
 4;158,118,116,157;,
 4;158,157,134,136;,
 4;159,120,118,158;,
 4;159,158,136,138;,
 4;160,122,120,159;,
 4;160,159,138,140;,
 4;161,124,122,160;,
 4;161,160,140,142;,
 4;162,126,124,161;,
 4;162,161,142,144;,
 4;163,128,126,162;,
 4;163,162,144,146;,
 4;164,165,166,167;,
 4;167,166,168,169;,
 4;169,168,170,171;,
 4;172,173,174,175;,
 4;176,177,173,172;,
 4;178,179,177,176;,
 3;180,175,174;,
 3;181,165,164;,
 3;182,179,178;,
 3;183,171,170;,
 4;184,185,186,187;,
 4;188,189,185,184;,
 4;188,184,190,191;,
 4;192,193,189,188;,
 4;192,188,191,194;,
 4;195,196,193,192;,
 4;195,192,194,197;,
 4;198,199,196,195;,
 4;200,201,202,203;,
 4;204,205,201,200;,
 4;204,200,206,207;,
 4;208,209,205,204;,
 4;208,204,207,210;,
 4;211,212,209,208;,
 4;211,208,210,213;,
 4;214,215,212,211;,
 3;216,190,184;,
 3;217,211,213;,
 3;218,195,197;,
 3;219,206,200;;
 
 MeshMaterialList {
  2;
  121;
  0,
  0,
  0,
  0,
  0,
  0,
  0,
  0,
  0,
  0,
  0,
  0,
  0,
  0,
  0,
  0,
  0,
  0,
  0,
  0,
  0,
  0,
  0,
  0,
  0,
  0,
  0,
  0,
  0,
  0,
  0,
  0,
  0,
  0,
  0,
  0,
  0,
  0,
  0,
  0,
  0,
  0,
  0,
  0,
  0,
  0,
  0,
  0,
  0,
  0,
  0,
  1,
  1,
  1,
  1,
  1,
  1,
  1,
  1,
  1,
  1,
  1,
  1,
  1,
  1,
  1,
  1,
  1,
  1,
  1,
  1,
  1,
  1,
  1,
  1,
  1,
  1,
  1,
  1,
  1,
  1,
  1,
  1,
  1,
  1,
  1,
  1,
  1,
  1,
  1,
  1,
  1,
  1,
  1,
  1,
  1,
  1,
  1,
  1,
  1,
  1,
  1,
  1,
  1,
  1,
  1,
  1,
  1,
  1,
  1,
  1,
  1,
  1,
  1,
  1,
  1,
  1,
  1,
  1,
  1,
  1;;
  Material {
   0.549020;0.800000;0.464314;1.000000;;
   5.000000;
   0.000000;0.000000;0.000000;;
   0.000000;0.000000;0.000000;;
  }
  Material {
   0.800000;0.501961;0.417255;1.000000;;
   5.000000;
   0.000000;0.000000;0.000000;;
   0.000000;0.000000;0.000000;;
  }
 }
 MeshNormals {
  110;
  0.000000;0.277450;-0.960740;,
  0.000000;-0.352111;-0.935958;,
  0.000000;0.919665;-0.392704;,
  0.000000;0.919665;0.392704;,
  0.000000;-0.919665;-0.392704;,
  0.000000;-0.919665;0.392704;,
  0.000000;0.277450;0.960740;,
  0.000000;-0.352111;0.935958;,
  0.000000;0.022001;-0.999758;,
  1.000000;0.000000;0.000000;,
  0.000000;0.022001;0.999758;,
  0.000000;-0.100519;-0.994935;,
  0.000000;-0.100519;0.994935;,
  0.000000;0.642948;-0.765910;,
  0.000000;-0.709317;-0.704889;,
  0.000000;0.933615;-0.358278;,
  0.000000;0.933615;0.358278;,
  0.000000;-0.980454;-0.196750;,
  0.000000;-0.980454;0.196750;,
  0.000000;0.642948;0.765910;,
  0.000000;-0.709317;0.704889;,
  0.000000;-0.104826;-0.994491;,
  0.000000;-0.104826;0.994491;,
  -1.000000;0.000000;0.000000;,
  0.000000;0.468015;0.883720;,
  0.000000;0.468015;-0.883720;,
  1.000000;0.000000;-0.000000;,
  -1.000000;0.000000;0.000000;,
  0.000000;0.226013;0.974124;,
  0.000000;-0.031073;0.999517;,
  0.000000;0.226013;-0.974124;,
  0.000000;-0.031073;-0.999517;,
  0.000000;1.000000;0.000000;,
  -0.000000;0.002338;-0.999997;,
  0.751703;0.002124;-0.659499;,
  0.999998;0.001944;0.000000;,
  0.751703;0.002124;0.659499;,
  -0.000000;0.002338;0.999997;,
  -0.751703;0.002124;0.659499;,
  -0.999998;0.001944;-0.000000;,
  -0.751703;0.002124;-0.659499;,
  -0.000000;0.012209;-0.999925;,
  0.751659;0.011090;-0.659459;,
  0.999949;0.010152;0.000000;,
  0.751659;0.011090;0.659459;,
  -0.000000;0.012209;0.999925;,
  -0.751659;0.011090;0.659459;,
  -0.999949;0.010152;-0.000000;,
  -0.751659;0.011090;-0.659459;,
  0.000000;-1.000000;-0.000000;,
  -0.000000;-0.014674;-0.999892;,
  0.751640;-0.013328;-0.659439;,
  0.999926;-0.012202;0.000000;,
  0.751640;-0.013328;0.659439;,
  -0.000000;-0.014674;0.999892;,
  -0.751640;-0.013328;0.659439;,
  -0.999926;-0.012202;-0.000000;,
  -0.751640;-0.013328;-0.659439;,
  0.000000;0.915039;-0.403366;,
  0.000000;-0.994753;0.102310;,
  0.000000;0.963730;-0.266880;,
  0.000000;0.998044;-0.062518;,
  0.000000;0.998044;0.062518;,
  0.000000;0.963730;0.266880;,
  0.000000;-0.997515;0.070451;,
  0.000000;-0.999814;0.019264;,
  0.000000;-0.999814;-0.019264;,
  0.000000;-0.997515;-0.070451;,
  0.000000;0.915039;0.403366;,
  0.000000;-0.994753;-0.102310;,
  0.991812;0.008967;-0.127395;,
  0.998607;-0.036624;-0.037995;,
  0.998607;-0.036624;0.037995;,
  0.991812;0.008967;0.127395;,
  -0.991812;0.008967;0.127395;,
  -0.998607;-0.036624;0.037995;,
  -0.998607;-0.036624;-0.037995;,
  -0.991812;0.008967;-0.127395;,
  -0.000000;-0.021813;-0.999762;,
  0.751561;-0.019814;-0.659365;,
  0.999835;-0.018139;0.000000;,
  0.751561;-0.019814;0.659365;,
  -0.000000;-0.021813;0.999762;,
  -0.751562;-0.019814;0.659365;,
  -0.999835;-0.018139;-0.000000;,
  -0.751561;-0.019814;-0.659365;,
  0.987435;-0.113350;-0.110106;,
  0.987447;-0.049842;-0.149882;,
  0.983133;0.041400;-0.178145;,
  0.979339;-0.199193;-0.034886;,
  0.981048;0.131046;-0.142727;,
  0.991103;0.126916;-0.040085;,
  0.979339;-0.199193;0.034886;,
  0.991103;0.126916;0.040085;,
  0.987435;-0.113350;0.110106;,
  0.981048;0.131046;0.142727;,
  0.983133;0.041400;0.178145;,
  0.987447;-0.049842;0.149882;,
  -0.987435;-0.113350;0.110106;,
  -0.987447;-0.049842;0.149882;,
  -0.983133;0.041400;0.178145;,
  -0.979339;-0.199193;0.034886;,
  -0.981048;0.131046;0.142727;,
  -0.991103;0.126916;0.040085;,
  -0.979339;-0.199193;-0.034886;,
  -0.991103;0.126916;-0.040085;,
  -0.987435;-0.113350;-0.110106;,
  -0.981048;0.131046;-0.142727;,
  -0.983133;0.041400;-0.178145;,
  -0.987447;-0.049842;-0.149882;;
  121;
  4;6,6,3,3;,
  4;3,3,2,2;,
  4;2,2,0,0;,
  4;5,5,7,7;,
  4;4,4,5,5;,
  4;1,1,4,4;,
  4;8,1,1,8;,
  4;9,9,9,9;,
  4;10,7,7,10;,
  4;23,23,23,23;,
  4;11,0,0,11;,
  4;11,11,8,8;,
  4;9,9,9,9;,
  4;9,9,9,9;,
  4;12,6,6,12;,
  4;12,12,10,10;,
  4;23,23,23,23;,
  4;23,23,23,23;,
  3;9,9,26;,
  3;23,27,23;,
  3;23,23,27;,
  3;9,26,9;,
  3;9,9,9;,
  3;23,23,23;,
  3;23,23,23;,
  3;9,9,9;,
  4;19,19,16,16;,
  4;15,15,13,13;,
  4;18,18,20,20;,
  4;17,17,18,18;,
  4;14,14,17,17;,
  4;21,14,14,21;,
  4;21,21,13,13;,
  4;9,9,9,9;,
  4;9,9,9,9;,
  4;9,9,9,9;,
  4;9,9,9,9;,
  4;22,20,20,22;,
  4;22,22,19,19;,
  4;23,23,23,23;,
  4;23,23,23,23;,
  4;23,23,23,23;,
  4;23,23,23,23;,
  4;28,29,29,28;,
  4;30,31,31,30;,
  4;24,28,28,24;,
  4;25,30,30,25;,
  3;23,23,23;,
  3;23,23,23;,
  3;9,9,9;,
  3;9,9,9;,
  4;33,34,42,41;,
  4;34,35,43,42;,
  4;35,36,44,43;,
  4;36,37,45,44;,
  4;37,38,46,45;,
  4;38,39,47,46;,
  4;39,40,48,47;,
  4;40,33,41,48;,
  3;32,32,32;,
  3;32,32,32;,
  3;32,32,32;,
  3;32,32,32;,
  3;32,32,32;,
  3;32,32,32;,
  3;32,32,32;,
  3;32,32,32;,
  3;49,49,49;,
  3;49,49,49;,
  3;49,49,49;,
  3;49,49,49;,
  3;49,49,49;,
  3;49,49,49;,
  3;49,49,49;,
  3;49,49,49;,
  4;51,34,33,50;,
  4;51,50,78,79;,
  4;52,35,34,51;,
  4;52,51,79,80;,
  4;53,36,35,52;,
  4;53,52,80,81;,
  4;54,37,36,53;,
  4;54,53,81,82;,
  4;55,38,37,54;,
  4;55,54,82,83;,
  4;56,39,38,55;,
  4;56,55,83,84;,
  4;57,40,39,56;,
  4;57,56,84,85;,
  4;50,33,40,57;,
  4;50,57,85,78;,
  4;63,63,62,62;,
  4;62,62,61,61;,
  4;61,61,60,60;,
  4;66,66,67,67;,
  4;65,65,66,66;,
  4;64,64,65,65;,
  3;69,67,67;,
  3;68,63,63;,
  3;59,64,64;,
  3;58,60,60;,
  4;70,86,87,88;,
  4;71,89,86,70;,
  4;71,70,90,91;,
  4;72,92,89,71;,
  4;72,71,91,93;,
  4;73,94,92,72;,
  4;73,72,93,95;,
  4;96,97,94,73;,
  4;74,98,99,100;,
  4;75,101,98,74;,
  4;75,74,102,103;,
  4;76,104,101,75;,
  4;76,75,103,105;,
  4;77,106,104,76;,
  4;77,76,105,107;,
  4;108,109,106,77;,
  3;88,90,70;,
  3;108,77,107;,
  3;96,73,95;,
  3;100,102,74;;
 }
 MeshTextureCoords {
  220;
  0.000000;0.000000;,
  1.000000;0.000000;,
  1.000000;0.333333;,
  0.000000;0.333333;,
  1.000000;0.666667;,
  0.000000;0.666667;,
  1.000000;1.000000;,
  0.000000;1.000000;,
  0.000000;0.666667;,
  1.000000;0.666667;,
  1.000000;1.000000;,
  0.000000;1.000000;,
  0.000000;0.333333;,
  1.000000;0.333333;,
  0.000000;0.000000;,
  1.000000;0.000000;,
  1.000000;0.567616;,
  1.000000;1.000000;,
  0.000000;1.000000;,
  0.000000;0.567616;,
  0.666667;0.561197;,
  0.666667;1.000000;,
  0.333333;1.000000;,
  0.333333;0.561197;,
  1.000000;0.567616;,
  1.000000;1.000000;,
  0.000000;1.000000;,
  0.000000;0.567616;,
  0.666667;0.561197;,
  0.666667;1.000000;,
  0.333333;1.000000;,
  0.333333;0.561197;,
  0.000000;0.334464;,
  0.000000;0.000000;,
  1.000000;0.000000;,
  1.000000;0.334464;,
  0.333333;0.350179;,
  0.333333;0.000000;,
  0.666667;0.000000;,
  0.666667;0.350179;,
  0.000000;0.334464;,
  0.000000;0.000000;,
  1.000000;0.000000;,
  1.000000;0.334464;,
  0.333333;0.350179;,
  0.333333;0.000000;,
  0.666667;0.000000;,
  0.666667;0.350179;,
  0.166667;0.564407;,
  0.000000;1.000000;,
  0.833333;0.564407;,
  1.000000;1.000000;,
  0.166667;0.564407;,
  0.833333;0.564407;,
  0.833333;0.342322;,
  0.166667;0.342322;,
  0.833333;0.342322;,
  1.000000;0.000000;,
  0.166667;0.342322;,
  0.000000;0.000000;,
  0.000000;0.000000;,
  1.000000;0.000000;,
  1.000000;0.333333;,
  0.000000;0.333333;,
  0.000000;0.666667;,
  1.000000;0.666667;,
  1.000000;1.000000;,
  0.000000;1.000000;,
  0.000000;0.666667;,
  1.000000;0.666667;,
  1.000000;1.000000;,
  0.000000;1.000000;,
  0.000000;0.333333;,
  1.000000;0.333333;,
  0.000000;0.000000;,
  1.000000;0.000000;,
  1.000000;0.430080;,
  1.000000;1.000000;,
  0.000000;1.000000;,
  0.000000;0.430080;,
  0.000000;0.000000;,
  1.000000;0.000000;,
  0.333333;0.509204;,
  0.333333;1.000000;,
  0.000000;1.000000;,
  0.000000;0.430080;,
  0.000000;0.000000;,
  0.333333;0.000000;,
  1.000000;0.430080;,
  0.666667;1.000000;,
  0.666667;0.509204;,
  0.666667;0.000000;,
  1.000000;0.430080;,
  1.000000;1.000000;,
  0.000000;1.000000;,
  0.000000;0.430080;,
  0.000000;0.000000;,
  1.000000;0.000000;,
  0.333333;0.509204;,
  0.333333;1.000000;,
  0.000000;0.430080;,
  0.333333;0.000000;,
  1.000000;0.430080;,
  1.000000;1.000000;,
  0.666667;1.000000;,
  0.666667;0.509204;,
  0.666667;0.000000;,
  1.000000;0.000000;,
  0.333333;0.603292;,
  0.666667;0.603292;,
  0.333333;0.603292;,
  0.666667;0.603292;,
  0.000000;0.500000;,
  0.125000;0.500000;,
  0.125000;1.000000;,
  0.000000;1.000000;,
  0.250000;0.500000;,
  0.250000;1.000000;,
  0.375000;0.500000;,
  0.375000;1.000000;,
  0.500000;0.500000;,
  0.500000;1.000000;,
  0.625000;0.500000;,
  0.625000;1.000000;,
  0.750000;0.500000;,
  0.750000;1.000000;,
  0.875000;0.500000;,
  0.875000;1.000000;,
  1.000000;0.500000;,
  1.000000;1.000000;,
  0.062500;0.000000;,
  0.125000;0.000000;,
  0.000000;0.000000;,
  0.187500;0.000000;,
  0.250000;0.000000;,
  0.312500;0.000000;,
  0.375000;0.000000;,
  0.437500;0.000000;,
  0.500000;0.000000;,
  0.562500;0.000000;,
  0.625000;0.000000;,
  0.687500;0.000000;,
  0.750000;0.000000;,
  0.812500;0.000000;,
  0.875000;0.000000;,
  0.937500;0.000000;,
  1.000000;0.000000;,
  0.062500;1.000000;,
  0.187500;1.000000;,
  0.312500;1.000000;,
  0.437500;1.000000;,
  0.562500;1.000000;,
  0.687500;1.000000;,
  0.812500;1.000000;,
  0.937500;1.000000;,
  0.125000;0.317721;,
  0.000000;0.317721;,
  0.250000;0.317721;,
  0.375000;0.317721;,
  0.500000;0.317721;,
  0.625000;0.317721;,
  0.750000;0.317721;,
  0.875000;0.317721;,
  1.000000;0.317721;,
  0.000000;0.200000;,
  1.000000;0.200000;,
  1.000000;0.400000;,
  0.000000;0.400000;,
  1.000000;0.600000;,
  0.000000;0.600000;,
  1.000000;0.800000;,
  0.000000;0.800000;,
  0.000000;0.600000;,
  1.000000;0.600000;,
  1.000000;0.800000;,
  0.000000;0.800000;,
  0.000000;0.400000;,
  1.000000;0.400000;,
  0.000000;0.200000;,
  1.000000;0.200000;,
  0.500000;1.000000;,
  0.500000;0.000000;,
  0.500000;0.000000;,
  0.500000;1.000000;,
  0.200000;0.510157;,
  0.200000;1.000000;,
  0.000000;1.000000;,
  0.000000;0.510157;,
  0.400000;0.510157;,
  0.400000;1.000000;,
  0.200000;0.000000;,
  0.400000;0.000000;,
  0.600000;0.510157;,
  0.600000;1.000000;,
  0.600000;0.000000;,
  0.800000;0.510157;,
  0.800000;1.000000;,
  0.800000;0.000000;,
  1.000000;0.510157;,
  1.000000;1.000000;,
  0.200000;0.510157;,
  0.200000;1.000000;,
  0.000000;1.000000;,
  0.000000;0.510157;,
  0.400000;0.510157;,
  0.400000;1.000000;,
  0.200000;0.000000;,
  0.400000;0.000000;,
  0.600000;0.510157;,
  0.600000;1.000000;,
  0.600000;0.000000;,
  0.800000;0.510157;,
  0.800000;1.000000;,
  0.800000;0.000000;,
  1.000000;0.510157;,
  1.000000;1.000000;,
  0.000000;0.255078;,
  1.000000;0.255078;,
  1.000000;0.255078;,
  0.000000;0.255078;;
 }
}
